[
   {
      "symbol":"LINKBTC",
      "orderId":28103622,
      "clientOrderId":"huzJ9Lqf67TV9SBNgklE9r",
      "price":"0.00000000",
      "origQty":"371.00000000",
      "executedQty":"371.00000000",
      "cummulativeQuoteQty":"0.01881712",
      "status":"FILLED",
      "timeInForce":"GTC",
      "type":"MARKET",
      "side":"BUY",
      "stopPrice":"0.00000000",
      "icebergQty":"0.00000000",
      "time":1537922438367,
      "updateTime":1537922438367,
      "isWorking":true
   },
   {
      "symbol":"LINKBTC",
      "orderId":28137254,
      "clientOrderId":"dVR1oABH1BPpQSt60dGYzf",
      "price":"0.00000000",
      "origQty":"371.00000000",
      "executedQty":"371.00000000",
      "cummulativeQuoteQty":"0.01852403",
      "status":"FILLED",
      "timeInForce":"GTC",
      "type":"MARKET",
      "side":"SELL",
      "stopPrice":"0.00000000",
      "icebergQty":"0.00000000",
      "time":1537952852012,
      "updateTime":1537952852012,
      "isWorking":true
   },
   {
      "symbol":"LINKBTC",
      "orderId":70422476,
      "clientOrderId":"and_480a629d72434b23b29c5403eb6d9545",
      "price":"0.00000000",
      "origQty":"700.00000000",
      "executedQty":"700.00000000",
      "cummulativeQuoteQty":"0.06071593",
      "status":"FILLED",
      "timeInForce":"GTC",
      "type":"MARKET",
      "side":"BUY",
      "stopPrice":"0.00000000",
      "icebergQty":"0.00000000",
      "time":1556797243806,
      "updateTime":1556797243806,
      "isWorking":true
   },
   {
      "symbol":"LINKBTC",
      "orderId":70498325,
      "clientOrderId":"and_8c82554f3e5046f9a1078cd8ae853da4",
      "price":"0.00008020",
      "origQty":"700.00000000",
      "executedQty":"0.00000000",
      "cummulativeQuoteQty":"0.00000000",
      "status":"CANCELED",
      "timeInForce":"GTC",
      "type":"STOP_LOSS_LIMIT",
      "side":"SELL",
      "stopPrice":"0.00007950",
      "icebergQty":"0.00000000",
      "time":1556837412369,
      "updateTime":1556913346226,
      "isWorking":false
   },
   {
      "symbol":"LINKBTC",
      "orderId":70680752,
      "clientOrderId":"and_a2dd9b8b1dbe4b51b1d5bf33ba78d437",
      "price":"0.00008900",
      "origQty":"700.00000000",
      "executedQty":"700.00000000",
      "cummulativeQuoteQty":"0.06230000",
      "status":"FILLED",
      "timeInForce":"GTC",
      "type":"LIMIT",
      "side":"SELL",
      "stopPrice":"0.00000000",
      "icebergQty":"0.00000000",
      "time":1556913368231,
      "updateTime":1556922496590,
      "isWorking":true
   },
   {
      "symbol":"LINKBTC",
      "orderId":73541620,
      "clientOrderId":"and_2308497e4a2545c18cc724e8aedafe27",
      "price":"0.00009475",
      "origQty":"85.00000000",
      "executedQty":"85.00000000",
      "cummulativeQuoteQty":"0.00805375",
      "status":"FILLED",
      "timeInForce":"GTC",
      "type":"LIMIT",
      "side":"BUY",
      "stopPrice":"0.00000000",
      "icebergQty":"0.00000000",
      "time":1557623833492,
      "updateTime":1557624290877,
      "isWorking":true
   },
   {
      "symbol":"LINKBTC",
      "orderId":73706495,
      "clientOrderId":"and_af0d7981c3f447ab93a46fcbd202ab36",
      "price":"0.00009208",
      "origQty":"90.00000000",
      "executedQty":"90.00000000",
      "cummulativeQuoteQty":"0.00828720",
      "status":"FILLED",
      "timeInForce":"GTC",
      "type":"LIMIT",
      "side":"BUY",
      "stopPrice":"0.00000000",
      "icebergQty":"0.00000000",
      "time":1557668631447,
      "updateTime":1557668631683,
      "isWorking":true
   },
   {
      "symbol":"LINKBTC",
      "orderId":73785492,
      "clientOrderId":"and_11fd24957066433590166736ac288fb5",
      "price":"0.00009520",
      "origQty":"175.00000000",
      "executedQty":"0.00000000",
      "cummulativeQuoteQty":"0.00000000",
      "status":"CANCELED",
      "timeInForce":"GTC",
      "type":"TAKE_PROFIT_LIMIT",
      "side":"SELL",
      "stopPrice":"0.00009500",
      "icebergQty":"0.00000000",
      "time":1557691818525,
      "updateTime":1557692219719,
      "isWorking":false
   },
   {
      "symbol":"LINKBTC",
      "orderId":73786632,
      "clientOrderId":"and_f238e83b6bec42aaa7bf26ac1ede2b39",
      "price":"0.00009400",
      "origQty":"90.00000000",
      "executedQty":"58.00000000",
      "cummulativeQuoteQty":"0.00545200",
      "status":"CANCELED",
      "timeInForce":"GTC",
      "type":"LIMIT",
      "side":"SELL",
      "stopPrice":"0.00000000",
      "icebergQty":"0.00000000",
      "time":1557692242502,
      "updateTime":1557693183944,
      "isWorking":true
   },
   {
      "symbol":"LINKBTC",
      "orderId":73790532,
      "clientOrderId":"and_0bbbb6ed859e49f7b2579a80d434483a",
      "price":"0.00009380",
      "origQty":"27.00000000",
      "executedQty":"27.00000000",
      "cummulativeQuoteQty":"0.00253260",
      "status":"FILLED",
      "timeInForce":"GTC",
      "type":"LIMIT",
      "side":"SELL",
      "stopPrice":"0.00000000",
      "icebergQty":"0.00000000",
      "time":1557693217981,
      "updateTime":1557696876183,
      "isWorking":true
   },
   {
      "symbol":"LINKBTC",
      "orderId":73937675,
      "clientOrderId":"and_98fbb235479a48c5942d0e73133dafb6",
      "price":"0.00009614",
      "origQty":"90.00000000",
      "executedQty":"0.00000000",
      "cummulativeQuoteQty":"0.00000000",
      "status":"CANCELED",
      "timeInForce":"GTC",
      "type":"LIMIT",
      "side":"SELL",
      "stopPrice":"0.00000000",
      "icebergQty":"0.00000000",
      "time":1557729137668,
      "updateTime":1557732086013,
      "isWorking":true
   },
   {
      "symbol":"LINKBTC",
      "orderId":73948613,
      "clientOrderId":"and_bd12f32fead24ea48c8a282b787451aa",
      "price":"0.00009547",
      "origQty":"90.00000000",
      "executedQty":"90.00000000",
      "cummulativeQuoteQty":"0.00859230",
      "status":"FILLED",
      "timeInForce":"GTC",
      "type":"LIMIT",
      "side":"SELL",
      "stopPrice":"0.00000000",
      "icebergQty":"0.00000000",
      "time":1557732102578,
      "updateTime":1557732573848,
      "isWorking":true
   },
   {
      "symbol":"LINKBTC",
      "orderId":75275728,
      "clientOrderId":"and_79dd71fc47e74ed1b8182261ca9d3d9c",
      "price":"0.00010132",
      "origQty":"445.00000000",
      "executedQty":"445.00000000",
      "cummulativeQuoteQty":"0.04508740",
      "status":"FILLED",
      "timeInForce":"GTC",
      "type":"TAKE_PROFIT_LIMIT",
      "side":"BUY",
      "stopPrice":"0.00010140",
      "icebergQty":"0.00000000",
      "time":1557994165623,
      "updateTime":1558000331121,
      "isWorking":true
   },
   {
      "symbol":"LINKBTC",
      "orderId":75308003,
      "clientOrderId":"and_a738e54c460541afaa5b84d310774d13",
      "price":"0.00009940",
      "origQty":"445.00000000",
      "executedQty":"0.00000000",
      "cummulativeQuoteQty":"0.00000000",
      "status":"CANCELED",
      "timeInForce":"GTC",
      "type":"LIMIT",
      "side":"SELL",
      "stopPrice":"0.00000000",
      "icebergQty":"0.00000000",
      "time":1558001805405,
      "updateTime":1558001825740,
      "isWorking":true
   },
   {
      "symbol":"LINKBTC",
      "orderId":75308440,
      "clientOrderId":"and_0da03705d28c40dd9dee2ec899b1f2b9",
      "price":"0.00000000",
      "origQty":"445.00000000",
      "executedQty":"445.00000000",
      "cummulativeQuoteQty":"0.04389969",
      "status":"FILLED",
      "timeInForce":"GTC",
      "type":"MARKET",
      "side":"SELL",
      "stopPrice":"0.00000000",
      "icebergQty":"0.00000000",
      "time":1558001852081,
      "updateTime":1558001852081,
      "isWorking":true
   }
]